<?xml version="1.0" encoding="utf-8"?>
<!-- Generator: Adobe Illustrator 26.0.2, SVG Export Plug-In . SVG Version: 6.00 Build 0)  -->
<svg version="1.1" id="Layer_1" xmlns="http://www.w3.org/2000/svg" xmlns:xlink="http://www.w3.org/1999/xlink" x="0px" y="0px"
	 viewBox="0 0 984.5 382.8" style="enable-background:new 0 0 984.5 382.8;" xml:space="preserve">
<style type="text/css">
	.st0{fill:#FF4E00;}
	.st1{fill:#DD324B;}
	.st2{fill:#6FEEC9;}
	.st3{fill:#FFF200;}
	.st4{fill:none;}
	.st5{fill:#FFFFFF;}
	.st6{fill:#121B86;}
	.st7{fill:#51B1D5;}
	.st8{display:none;}
	.st9{display:inline;}
	.st10{fill:#982C7E;}
	.st11{clip-path:url(#SVGID_00000084523745762674828020000002688729352908523396_);}
	.st12{clip-path:url(#SVGID_00000029026995857361336730000003709499616773114813_);}
	.st13{fill:none;stroke:#51B1D5;stroke-width:2;stroke-miterlimit:10;}
	.st14{clip-path:url(#SVGID_00000125574646440509565110000008952240162747924409_);}
	.st15{clip-path:url(#SVGID_00000171705817864680095470000003656005848623096467_);}
	.st16{opacity:0.998;fill:none;stroke:#FFF200;stroke-width:3;enable-background:new    ;}
	.st17{fill:#121B86;stroke:#FFF200;stroke-width:3;stroke-miterlimit:10;}
	.st18{fill:#121B86;stroke:#6FEEC9;stroke-width:5;stroke-miterlimit:10;}
	.st19{fill:none;stroke:#FFF200;stroke-width:3;stroke-miterlimit:10;}
	.st20{fill:#DF36C5;}
	.st21{clip-path:url(#SVGID_00000038396332635699945100000010263419139402176165_);}
	.st22{fill:none;stroke:#121B86;stroke-width:3;stroke-miterlimit:10;}
	.st23{clip-path:url(#SVGID_00000136407382143275724690000014565709452449953177_);}
	.st24{clip-path:url(#SVGID_00000031926410139347979430000014480151166874374544_);fill:#982C7E;}
	.st25{fill:#FFFFFF;stroke:#51B1D5;stroke-miterlimit:10;}
	.st26{display:inline;fill:#121B86;}
	.st27{fill:#75DD31;}
</style>
<rect x="-13.4" y="-9" class="st0" width="1010.7" height="400.8"/>
<g>
	<g id="_x31_4_00000097467526958996288150000018106599738867641531_">
		<g>
			<polygon class="st1" points="795.9,16.2 795.9,3.6 745.6,3.6 745.6,-9 733,-9 733,41.4 745.6,41.4 758.2,41.4 758.2,91.7 
				770.7,91.7 770.7,41.4 783.3,41.4 783.3,91.7 795.9,91.7 795.9,41.4 795.9,28.8 745.6,28.8 745.6,16.2 			"/>
		</g>
	</g>
	<g id="_x31_4_00000145765468768938391820000008480174180021034899_">
		<g>
			<rect x="795.9" y="79.1" class="st1" width="50.4" height="12.6"/>
			<rect x="795.9" y="54" class="st2" width="50.4" height="12.6"/>
			<polygon class="st1" points="896.6,16.2 896.6,3.6 846.3,3.6 846.3,-9 833.7,-9 833.7,41.4 846.3,41.4 858.9,41.4 858.9,91.7 
				871.5,91.7 871.5,41.4 884,41.4 884,91.7 896.6,91.7 896.6,41.4 896.6,28.8 846.3,28.8 846.3,16.2 			"/>
			<rect x="808.5" y="-9" class="st1" width="12.6" height="50.4"/>
		</g>
	</g>
	<g id="_x31_4_00000012440841551028018680000007211573346147145356_">
		<g>
			<rect x="795.9" y="179.8" class="st1" width="50.4" height="12.6"/>
			<rect x="795.9" y="154.7" class="st1" width="50.4" height="12.6"/>
			<polygon class="st1" points="896.6,116.9 896.6,104.3 846.3,104.3 846.3,91.7 833.7,91.7 833.7,142.1 846.3,142.1 858.9,142.1 
				858.9,192.4 871.5,192.4 871.5,142.1 884,142.1 884,192.4 896.6,192.4 896.6,142.1 896.6,129.5 846.3,129.5 846.3,116.9 			"/>
			<rect x="808.5" y="91.7" class="st1" width="12.6" height="50.4"/>
		</g>
	</g>
	<g id="_x31_4_00000069385489309937290110000015872083734449612691_">
		<g>
			<rect x="896.6" y="79.1" class="st1" width="50.4" height="12.6"/>
			<rect x="896.6" y="54" class="st1" width="50.4" height="12.6"/>
			<polygon class="st1" points="997.3,16.2 997.3,3.6 947,3.6 947,-9 934.4,-9 934.4,41.4 947,41.4 959.6,41.4 959.6,91.7 
				972.2,91.7 972.2,41.4 984.7,41.4 984.7,91.7 997.3,91.7 997.3,41.4 997.3,28.8 947,28.8 947,16.2 			"/>
			<rect x="909.2" y="-9" class="st3" width="12.6" height="50.4"/>
		</g>
	</g>
	<g id="_x31_4_00000075878813335366048300000003173813997291530652_">
		<g>
			<rect x="896.6" y="179.8" class="st1" width="50.4" height="12.6"/>
			<rect x="896.6" y="154.7" class="st1" width="50.4" height="12.6"/>
			<polygon class="st1" points="997.3,116.9 997.3,104.3 947,104.3 947,91.7 934.4,91.7 934.4,142.1 947,142.1 959.6,142.1 
				959.6,192.4 972.2,192.4 972.2,142.1 984.7,142.1 984.7,192.4 997.3,192.4 997.3,142.1 997.3,129.5 947,129.5 947,116.9 			"/>
			<rect x="909.2" y="91.7" class="st1" width="12.6" height="50.4"/>
		</g>
	</g>
	<g id="_x31_4_00000113337798693255039040000016861174133115147450_">
		<g>
			<rect x="695.2" y="280.5" class="st1" width="50.4" height="12.6"/>
			<rect x="695.2" y="255.4" class="st3" width="50.4" height="12.6"/>
			<polygon class="st1" points="795.9,217.6 795.9,205 745.6,205 745.6,192.4 733,192.4 733,242.8 745.6,242.8 758.2,242.8 
				758.2,293.1 770.7,293.1 770.7,242.8 783.3,242.8 783.3,293.1 795.9,293.1 795.9,242.8 795.9,230.2 745.6,230.2 745.6,217.6 			
				"/>
		</g>
	</g>
	<g id="_x31_4_00000049927677488510447840000008577312710498181254_">
		<g>
			<rect x="795.9" y="280.5" class="st1" width="50.4" height="12.6"/>
			<rect x="795.9" y="255.4" class="st1" width="50.4" height="12.6"/>
			<polygon class="st1" points="896.6,217.6 896.6,205 846.3,205 846.3,192.4 833.7,192.4 833.7,242.8 846.3,242.8 858.9,242.8 
				858.9,293.1 871.5,293.1 871.5,242.8 884,242.8 884,293.1 896.6,293.1 896.6,242.8 896.6,230.2 846.3,230.2 846.3,217.6 			"/>
			<rect x="808.5" y="192.4" class="st1" width="12.6" height="50.4"/>
		</g>
	</g>
	<g id="_x31_4_00000150791987901806175030000006512371098615172739_">
		<g>
			<rect x="695.2" y="381.2" class="st1" width="50.4" height="12.6"/>
			<rect x="695.2" y="356.1" class="st1" width="50.4" height="12.6"/>
			<polygon class="st1" points="795.9,318.3 795.9,305.7 745.6,305.7 745.6,293.1 733,293.1 733,343.5 745.6,343.5 758.2,343.5 
				758.2,393.8 770.7,393.8 770.7,343.5 783.3,343.5 783.3,393.8 795.9,393.8 795.9,343.5 795.9,330.9 745.6,330.9 745.6,318.3 			
				"/>
			<rect x="707.8" y="293.1" class="st1" width="12.6" height="50.4"/>
		</g>
	</g>
	<g id="_x31_4_00000006681490846787453580000008339281964842556596_">
		<g>
			<rect x="795.9" y="381.2" class="st1" width="50.4" height="12.6"/>
			<rect x="795.9" y="356.1" class="st3" width="50.4" height="12.6"/>
			<polygon class="st1" points="896.6,318.3 896.6,305.7 846.3,305.7 846.3,293.1 833.7,293.1 833.7,343.5 846.3,343.5 858.9,343.5 
				858.9,393.8 871.5,393.8 871.5,343.5 884,343.5 884,393.8 896.6,393.8 896.6,343.5 896.6,330.9 846.3,330.9 846.3,318.3 			"/>
			<rect x="808.5" y="293.1" class="st2" width="12.6" height="50.4"/>
		</g>
	</g>
	<g id="_x31_4_00000177466416461333237010000010132400148636222857_">
		<g>
			<rect x="896.6" y="280.5" class="st1" width="50.4" height="12.6"/>
			<rect x="896.6" y="255.4" class="st1" width="50.4" height="12.6"/>
			<polygon class="st1" points="997.3,217.6 997.3,205 947,205 947,192.4 934.4,192.4 934.4,242.8 947,242.8 959.6,242.8 
				959.6,293.1 972.2,293.1 972.2,242.8 984.7,242.8 984.7,293.1 997.3,293.1 997.3,242.8 997.3,230.2 947,230.2 947,217.6 			"/>
			<rect x="909.2" y="192.4" class="st3" width="12.6" height="50.4"/>
		</g>
	</g>
	<g id="_x31_4_00000023249549354849794120000011161833588548127674_">
		<g>
			<rect x="896.6" y="381.2" class="st1" width="50.4" height="12.6"/>
			<rect x="896.6" y="356.1" class="st1" width="50.4" height="12.6"/>
			<polygon class="st2" points="997.3,318.3 997.3,305.7 947,305.7 947,293.1 934.4,293.1 934.4,343.5 947,343.5 959.6,343.5 
				959.6,393.8 972.2,393.8 972.2,343.5 984.7,343.5 984.7,393.8 997.3,393.8 997.3,343.5 997.3,330.9 947,330.9 947,318.3 			"/>
			<rect x="909.2" y="293.1" class="st1" width="12.6" height="50.4"/>
		</g>
	</g>
</g>
<g>
	<g id="_x31_4_00000029027708469332060240000000393779667864252071_">
		<g>
			<rect x="594.2" y="381.2" class="st1" width="50.4" height="12.6"/>
			<rect x="594.2" y="356.1" class="st1" width="50.4" height="12.6"/>
			<polygon class="st1" points="694.9,318.3 694.9,305.7 644.6,305.7 644.6,293.1 632,293.1 632,343.5 644.6,343.5 657.2,343.5 
				657.2,393.8 669.8,393.8 669.8,343.5 682.3,343.5 682.3,393.8 694.9,393.8 694.9,343.5 694.9,330.9 644.6,330.9 644.6,318.3 			
				"/>
		</g>
	</g>
</g>
<g>
	<defs>
		<rect id="SVGID_00000061431401587118505590000017219365327772926117_" x="1097.7" y="-801.8" width="464.7" height="233.4"/>
	</defs>
	<clipPath id="SVGID_00000060720848722534704560000006349376607236772792_">
		<use xlink:href="#SVGID_00000061431401587118505590000017219365327772926117_"  style="overflow:visible;"/>
	</clipPath>
	<g style="clip-path:url(#SVGID_00000060720848722534704560000006349376607236772792_);">
	</g>
	
		<use xlink:href="#SVGID_00000061431401587118505590000017219365327772926117_"  style="overflow:visible;fill:none;stroke:#121B86;stroke-width:3;stroke-miterlimit:10;"/>
</g>
<g>
	<circle class="st2" cx="-4.4" cy="7.4" r="5.4"/>
	<circle class="st2" cx="12.1" cy="7.4" r="5.4"/>
	<circle class="st2" cx="28.6" cy="7.4" r="5.4"/>
	<circle class="st2" cx="45.1" cy="7.4" r="5.4"/>
	<circle class="st2" cx="61.6" cy="7.4" r="5.4"/>
	<circle class="st2" cx="78" cy="7.4" r="5.4"/>
	<circle class="st2" cx="94.5" cy="7.4" r="5.4"/>
	<circle class="st2" cx="111" cy="7.4" r="5.4"/>
	<circle class="st2" cx="127.5" cy="7.3" r="5.4"/>
	<circle class="st2" cx="144" cy="7.3" r="5.4"/>
	<circle class="st2" cx="160.5" cy="7.3" r="5.4"/>
	<circle class="st2" cx="176.9" cy="7.3" r="5.4"/>
	<circle class="st2" cx="193.4" cy="7.3" r="5.4"/>
	<circle class="st2" cx="209.9" cy="7.3" r="5.4"/>
	<circle class="st2" cx="226.4" cy="7.3" r="5.4"/>
	<circle class="st1" cx="242.9" cy="7.3" r="5.4"/>
	<circle class="st2" cx="259.4" cy="7.3" r="5.4"/>
	<circle class="st2" cx="275.8" cy="7.3" r="5.4"/>
	<circle class="st2" cx="292.3" cy="7.3" r="5.4"/>
	<circle class="st2" cx="308.8" cy="7.3" r="5.4"/>
	<circle class="st2" cx="325.3" cy="7.3" r="5.4"/>
	<circle class="st2" cx="341.8" cy="7.3" r="5.4"/>
	<circle class="st1" cx="358.3" cy="7.3" r="5.4"/>
	<circle class="st2" cx="374.7" cy="7.3" r="5.4"/>
	<circle class="st2" cx="3.8" cy="21.4" r="5.4"/>
	<circle class="st2" cx="20.3" cy="21.4" r="5.4"/>
	<circle class="st2" cx="36.7" cy="21.4" r="5.4"/>
	<circle class="st2" cx="53.2" cy="21.4" r="5.4"/>
	<circle class="st2" cx="69.7" cy="21.4" r="5.4"/>
	<circle class="st2" cx="86.2" cy="21.4" r="5.4"/>
	<circle class="st2" cx="102.7" cy="21.4" r="5.4"/>
	<circle class="st2" cx="119.2" cy="21.4" r="5.4"/>
	<circle class="st2" cx="135.6" cy="21.4" r="5.4"/>
	<circle class="st2" cx="152.1" cy="21.4" r="5.4"/>
	<circle class="st2" cx="168.6" cy="21.4" r="5.4"/>
	<circle class="st2" cx="185.1" cy="21.4" r="5.4"/>
	<circle class="st2" cx="201.6" cy="21.4" r="5.4"/>
	<circle class="st3" cx="218.1" cy="21.4" r="5.4"/>
	<circle class="st2" cx="234.5" cy="21.4" r="5.4"/>
	<circle class="st2" cx="251" cy="21.4" r="5.4"/>
	<circle class="st2" cx="267.5" cy="21.4" r="5.4"/>
	<circle class="st2" cx="284" cy="21.4" r="5.4"/>
	<circle class="st2" cx="300.5" cy="21.4" r="5.4"/>
	<circle class="st2" cx="317" cy="21.4" r="5.4"/>
	<circle class="st2" cx="333.4" cy="21.4" r="5.4"/>
	<circle class="st2" cx="-4.4" cy="35.4" r="5.4"/>
	<circle class="st2" cx="12.1" cy="35.4" r="5.4"/>
	<circle class="st2" cx="28.6" cy="35.4" r="5.4"/>
	<circle class="st2" cx="45.1" cy="35.4" r="5.4"/>
	<circle class="st2" cx="61.6" cy="35.4" r="5.4"/>
	<circle class="st2" cx="78" cy="35.4" r="5.4"/>
	<circle class="st2" cx="94.5" cy="35.4" r="5.4"/>
	<circle class="st2" cx="111" cy="35.4" r="5.4"/>
	<circle class="st2" cx="127.5" cy="35.4" r="5.4"/>
	<circle class="st2" cx="144" cy="35.4" r="5.4"/>
	<circle class="st2" cx="160.5" cy="35.4" r="5.4"/>
	<circle class="st2" cx="176.9" cy="35.4" r="5.4"/>
	<circle class="st2" cx="193.4" cy="35.4" r="5.4"/>
	<circle class="st2" cx="209.9" cy="35.4" r="5.4"/>
	<circle class="st2" cx="226.4" cy="35.4" r="5.4"/>
	<circle class="st2" cx="242.9" cy="35.4" r="5.4"/>
	<circle class="st2" cx="259.4" cy="35.4" r="5.4"/>
	<circle class="st2" cx="275.8" cy="35.4" r="5.4"/>
	<circle class="st2" cx="292.3" cy="35.4" r="5.4"/>
	<circle class="st2" cx="325.3" cy="35.4" r="5.4"/>
	<circle class="st3" cx="341.8" cy="35.4" r="5.4"/>
	<circle class="st2" cx="3.8" cy="49.5" r="5.4"/>
	<circle class="st2" cx="20.3" cy="49.5" r="5.4"/>
	<circle class="st2" cx="36.7" cy="49.5" r="5.4"/>
	<circle class="st2" cx="53.2" cy="49.5" r="5.4"/>
	<circle class="st2" cx="69.7" cy="49.5" r="5.4"/>
	<circle class="st2" cx="86.2" cy="49.5" r="5.4"/>
	<circle class="st2" cx="102.7" cy="49.5" r="5.4"/>
	<circle class="st2" cx="119.2" cy="49.5" r="5.4"/>
	<circle class="st1" cx="135.6" cy="49.5" r="5.4"/>
	<circle class="st2" cx="152.1" cy="49.5" r="5.4"/>
	<circle class="st2" cx="168.6" cy="49.5" r="5.4"/>
	<circle class="st2" cx="185.1" cy="49.4" r="5.4"/>
	<circle class="st1" cx="234.5" cy="49.4" r="5.4"/>
	<circle class="st2" cx="251" cy="49.4" r="5.4"/>
	<circle class="st2" cx="267.5" cy="49.4" r="5.4"/>
	<circle class="st2" cx="-4.4" cy="63.5" r="5.4"/>
	<circle class="st2" cx="12.1" cy="63.5" r="5.4"/>
	<circle class="st2" cx="28.6" cy="63.5" r="5.4"/>
	<circle class="st2" cx="45.1" cy="63.5" r="5.4"/>
	<circle class="st2" cx="61.6" cy="63.5" r="5.4"/>
	<circle class="st2" cx="78" cy="63.5" r="5.4"/>
	<circle class="st2" cx="94.5" cy="63.5" r="5.4"/>
	<circle class="st2" cx="111" cy="63.5" r="5.4"/>
	<circle class="st2" cx="127.5" cy="63.5" r="5.4"/>
	<circle class="st2" cx="144" cy="63.5" r="5.4"/>
	<circle class="st2" cx="160.5" cy="63.5" r="5.4"/>
	<circle class="st2" cx="3.8" cy="77.6" r="5.4"/>
	<circle class="st2" cx="20.3" cy="77.5" r="5.4"/>
	<circle class="st2" cx="36.7" cy="77.5" r="5.4"/>
	<circle class="st2" cx="53.2" cy="77.5" r="5.4"/>
	<circle class="st2" cx="69.7" cy="77.5" r="5.4"/>
	<circle class="st2" cx="86.2" cy="77.5" r="5.4"/>
	<circle class="st2" cx="102.7" cy="77.5" r="5.4"/>
	<circle class="st2" cx="119.2" cy="77.5" r="5.4"/>
	<circle class="st2" cx="135.6" cy="77.5" r="5.4"/>
	<circle class="st2" cx="152.1" cy="77.5" r="5.4"/>
	<circle class="st2" cx="-4.4" cy="91.6" r="5.4"/>
	<circle class="st2" cx="12.1" cy="91.6" r="5.4"/>
	<circle class="st2" cx="28.6" cy="91.6" r="5.4"/>
	<circle class="st3" cx="45.1" cy="91.6" r="5.4"/>
	<circle class="st2" cx="61.6" cy="91.6" r="5.4"/>
	<circle class="st2" cx="78.1" cy="91.6" r="5.4"/>
	<circle class="st2" cx="94.5" cy="91.6" r="5.4"/>
	<circle class="st2" cx="111" cy="91.6" r="5.4"/>
	<circle class="st2" cx="127.5" cy="91.6" r="5.4"/>
	<circle class="st2" cx="3.8" cy="105.4" r="5.4"/>
	<circle class="st2" cx="20.3" cy="105.4" r="5.4"/>
	<circle class="st2" cx="36.8" cy="105.4" r="5.4"/>
	<circle class="st2" cx="53.2" cy="105.4" r="5.4"/>
	<circle class="st2" cx="69.7" cy="105.4" r="5.4"/>
	<circle class="st2" cx="86.2" cy="105.4" r="5.4"/>
	<circle class="st2" cx="102.7" cy="105.4" r="5.4"/>
	<circle class="st2" cx="119.2" cy="105.4" r="5.4"/>
	<circle class="st2" cx="135.7" cy="105.4" r="5.4"/>
	<circle class="st2" cx="-4.4" cy="119.4" r="5.4"/>
	<circle class="st2" cx="12.1" cy="119.4" r="5.4"/>
	<circle class="st2" cx="28.6" cy="119.4" r="5.4"/>
	<circle class="st2" cx="45.1" cy="119.4" r="5.4"/>
	<circle class="st2" cx="61.6" cy="119.4" r="5.4"/>
	<circle class="st2" cx="78.1" cy="119.4" r="5.4"/>
	<circle class="st2" cx="94.5" cy="119.4" r="5.4"/>
	<circle class="st2" cx="111" cy="119.4" r="5.4"/>
	<circle class="st2" cx="127.5" cy="119.4" r="5.4"/>
	<circle class="st2" cx="3.8" cy="133.5" r="5.4"/>
	<circle class="st2" cx="20.3" cy="133.5" r="5.4"/>
	<circle class="st2" cx="36.8" cy="133.5" r="5.4"/>
	<circle class="st2" cx="53.2" cy="133.5" r="5.4"/>
	<circle class="st2" cx="69.7" cy="133.5" r="5.4"/>
	<circle class="st2" cx="86.2" cy="133.5" r="5.4"/>
	<circle class="st2" cx="102.7" cy="133.5" r="5.4"/>
	<circle class="st2" cx="119.2" cy="133.5" r="5.4"/>
	<circle class="st2" cx="-4.4" cy="147.5" r="5.4"/>
	<circle class="st3" cx="12.1" cy="147.5" r="5.4"/>
	<circle class="st2" cx="28.6" cy="147.5" r="5.4"/>
	<circle class="st2" cx="45.1" cy="147.5" r="5.4"/>
	<circle class="st2" cx="61.6" cy="147.5" r="5.4"/>
	<circle class="st2" cx="78.1" cy="147.5" r="5.4"/>
	<circle class="st2" cx="94.5" cy="147.5" r="5.4"/>
	<circle class="st2" cx="111" cy="147.5" r="5.4"/>
	<circle class="st2" cx="127.5" cy="147.5" r="5.4"/>
	<circle class="st2" cx="3.8" cy="161.6" r="5.4"/>
	<circle class="st2" cx="20.3" cy="161.6" r="5.4"/>
	<circle class="st2" cx="36.8" cy="161.5" r="5.4"/>
	<circle class="st2" cx="53.2" cy="161.5" r="5.4"/>
	<circle class="st2" cx="69.7" cy="161.5" r="5.4"/>
	<circle class="st2" cx="86.2" cy="161.5" r="5.4"/>
	<circle class="st2" cx="102.7" cy="161.5" r="5.4"/>
	<circle class="st2" cx="119.2" cy="161.5" r="5.4"/>
	<circle class="st2" cx="-4.4" cy="175.6" r="5.4"/>
	<circle class="st2" cx="12.1" cy="175.6" r="5.4"/>
	<circle class="st2" cx="28.6" cy="175.6" r="5.4"/>
	<circle class="st2" cx="45.1" cy="175.6" r="5.4"/>
	<circle class="st2" cx="61.6" cy="175.6" r="5.4"/>
	<circle class="st2" cx="78.1" cy="175.6" r="5.4"/>
	<circle class="st2" cx="94.5" cy="175.6" r="5.4"/>
	<circle class="st2" cx="111" cy="175.6" r="5.4"/>
	<circle class="st2" cx="127.5" cy="175.6" r="5.4"/>
	<circle class="st2" cx="3.8" cy="189.6" r="5.4"/>
	<circle class="st2" cx="20.3" cy="189.6" r="5.4"/>
	<circle class="st2" cx="36.8" cy="189.6" r="5.4"/>
	<circle class="st2" cx="53.3" cy="189.6" r="5.4"/>
	<circle class="st2" cx="69.7" cy="189.6" r="5.4"/>
	<circle class="st2" cx="86.2" cy="189.6" r="5.4"/>
	<circle class="st2" cx="102.7" cy="189.6" r="5.4"/>
	<circle class="st2" cx="119.2" cy="189.6" r="5.4"/>
	<circle class="st2" cx="135.7" cy="189.6" r="5.4"/>
	<circle class="st2" cx="-4.3" cy="203.7" r="5.4"/>
	<circle class="st2" cx="12.1" cy="203.7" r="5.4"/>
	<circle class="st2" cx="28.6" cy="203.7" r="5.4"/>
	<circle class="st2" cx="45.1" cy="203.7" r="5.4"/>
	<circle class="st2" cx="61.6" cy="203.7" r="5.4"/>
	<circle class="st2" cx="78.1" cy="203.7" r="5.4"/>
	<circle class="st2" cx="94.6" cy="203.6" r="5.4"/>
	<circle class="st2" cx="111" cy="203.6" r="5.4"/>
	<circle class="st2" cx="127.5" cy="203.6" r="5.4"/>
	<circle class="st2" cx="144" cy="203.6" r="5.4"/>
	<circle class="st2" cx="3.8" cy="217.7" r="5.4"/>
	<circle class="st2" cx="20.3" cy="217.7" r="5.4"/>
	<circle class="st2" cx="36.8" cy="217.7" r="5.4"/>
	<circle class="st1" cx="53.3" cy="217.7" r="5.4"/>
	<circle class="st2" cx="69.7" cy="217.7" r="5.4"/>
	<circle class="st2" cx="86.2" cy="217.7" r="5.4"/>
	<circle class="st2" cx="102.7" cy="217.7" r="5.4"/>
	<circle class="st2" cx="119.2" cy="217.7" r="5.4"/>
	<circle class="st2" cx="135.7" cy="217.7" r="5.4"/>
	<circle class="st2" cx="152.2" cy="217.7" r="5.4"/>
	<circle class="st2" cx="-4.3" cy="231.7" r="5.4"/>
	<circle class="st2" cx="12.1" cy="231.7" r="5.4"/>
	<circle class="st2" cx="28.6" cy="231.7" r="5.4"/>
	<circle class="st2" cx="45.1" cy="231.7" r="5.4"/>
	<circle class="st2" cx="61.6" cy="231.7" r="5.4"/>
	<circle class="st2" cx="78.1" cy="231.7" r="5.4"/>
	<circle class="st2" cx="94.6" cy="231.7" r="5.4"/>
	<circle class="st2" cx="111" cy="231.7" r="5.4"/>
	<circle class="st2" cx="127.5" cy="231.7" r="5.4"/>
	<circle class="st2" cx="144" cy="231.7" r="5.4"/>
	<circle class="st2" cx="160.5" cy="231.7" r="5.4"/>
	<circle class="st2" cx="177" cy="231.7" r="5.4"/>
	<circle class="st2" cx="3.8" cy="245.8" r="5.4"/>
	<circle class="st2" cx="20.3" cy="245.8" r="5.4"/>
	<circle class="st2" cx="36.8" cy="245.8" r="5.4"/>
	<circle class="st2" cx="53.3" cy="245.8" r="5.4"/>
	<circle class="st2" cx="69.7" cy="245.8" r="5.4"/>
	<circle class="st2" cx="86.2" cy="245.8" r="5.4"/>
	<circle class="st2" cx="102.7" cy="245.8" r="5.4"/>
	<circle class="st2" cx="119.2" cy="245.8" r="5.4"/>
	<circle class="st1" cx="135.7" cy="245.8" r="5.4"/>
	<circle class="st2" cx="152.2" cy="245.7" r="5.4"/>
	<circle class="st2" cx="168.6" cy="245.7" r="5.4"/>
	<circle class="st2" cx="185.1" cy="245.7" r="5.4"/>
	<circle class="st2" cx="-4.3" cy="259.8" r="5.4"/>
	<circle class="st2" cx="12.1" cy="259.8" r="5.4"/>
	<circle class="st2" cx="28.6" cy="259.8" r="5.4"/>
	<circle class="st2" cx="45.1" cy="259.8" r="5.4"/>
	<circle class="st2" cx="61.6" cy="259.8" r="5.4"/>
	<circle class="st2" cx="78.1" cy="259.8" r="5.4"/>
	<circle class="st2" cx="94.6" cy="259.8" r="5.4"/>
	<circle class="st2" cx="111" cy="259.8" r="5.4"/>
	<circle class="st3" cx="127.5" cy="259.8" r="5.4"/>
	<circle class="st1" cx="144" cy="259.8" r="5.4"/>
	<circle class="st2" cx="160.5" cy="259.8" r="5.4"/>
	<circle class="st2" cx="177" cy="259.8" r="5.4"/>
</g>
<g>
	<circle class="st2" cx="5" cy="273.4" r="5.4"/>
	<circle class="st2" cx="21.5" cy="273.4" r="5.4"/>
	<circle class="st2" cx="38" cy="273.4" r="5.4"/>
	<circle class="st2" cx="54.5" cy="273.4" r="5.4"/>
	<circle class="st2" cx="71" cy="273.4" r="5.4"/>
	<circle class="st2" cx="87.4" cy="273.4" r="5.4"/>
	<circle class="st2" cx="103.9" cy="273.4" r="5.4"/>
	<circle class="st2" cx="120.4" cy="273.4" r="5.4"/>
	<circle class="st2" cx="136.9" cy="273.4" r="5.4"/>
	<circle class="st2" cx="153.4" cy="273.4" r="5.4"/>
	<circle class="st2" cx="-3.1" cy="287.5" r="5.4"/>
	<circle class="st2" cx="13.4" cy="287.5" r="5.4"/>
	<circle class="st2" cx="29.8" cy="287.5" r="5.4"/>
	<circle class="st2" cx="46.3" cy="287.5" r="5.4"/>
	<circle class="st2" cx="62.8" cy="287.5" r="5.4"/>
	<circle class="st2" cx="79.3" cy="287.5" r="5.4"/>
	<circle class="st2" cx="95.8" cy="287.5" r="5.4"/>
	<circle class="st2" cx="112.3" cy="287.5" r="5.4"/>
	<circle class="st2" cx="128.7" cy="287.5" r="5.4"/>
	<circle class="st2" cx="145.2" cy="287.5" r="5.4"/>
	<circle class="st2" cx="161.7" cy="287.5" r="5.4"/>
	<circle class="st2" cx="178.2" cy="287.5" r="5.4"/>
	<circle class="st2" cx="194.7" cy="287.5" r="5.4"/>
	<circle class="st2" cx="211.2" cy="287.4" r="5.4"/>
	<circle class="st2" cx="227.6" cy="287.4" r="5.4"/>
	<circle class="st2" cx="5" cy="301.5" r="5.4"/>
	<circle class="st2" cx="21.5" cy="301.5" r="5.4"/>
	<circle class="st2" cx="38" cy="301.5" r="5.4"/>
	<circle class="st2" cx="54.5" cy="301.5" r="5.4"/>
	<circle class="st2" cx="71" cy="301.5" r="5.4"/>
	<circle class="st2" cx="87.4" cy="301.5" r="5.4"/>
	<circle class="st2" cx="103.9" cy="301.5" r="5.4"/>
	<circle class="st2" cx="120.4" cy="301.5" r="5.4"/>
	<circle class="st2" cx="136.9" cy="301.5" r="5.4"/>
	<circle class="st2" cx="153.4" cy="301.5" r="5.4"/>
	<circle class="st2" cx="169.9" cy="301.5" r="5.4"/>
	<circle class="st2" cx="186.3" cy="301.5" r="5.4"/>
	<circle class="st2" cx="202.8" cy="301.5" r="5.4"/>
	<circle class="st2" cx="219.3" cy="301.5" r="5.4"/>
	<circle class="st2" cx="235.8" cy="301.5" r="5.4"/>
	<circle class="st2" cx="252.3" cy="301.5" r="5.4"/>
	<circle class="st2" cx="-3.1" cy="315.6" r="5.4"/>
	<circle class="st3" cx="13.4" cy="315.6" r="5.4"/>
	<circle class="st2" cx="29.8" cy="315.6" r="5.4"/>
	<circle class="st2" cx="46.3" cy="315.5" r="5.4"/>
	<circle class="st2" cx="62.8" cy="315.5" r="5.4"/>
	<circle class="st2" cx="79.3" cy="315.5" r="5.4"/>
	<circle class="st2" cx="95.8" cy="315.5" r="5.4"/>
	<circle class="st2" cx="112.3" cy="315.5" r="5.4"/>
	<circle class="st2" cx="128.7" cy="315.5" r="5.4"/>
	<circle class="st2" cx="145.2" cy="315.5" r="5.4"/>
	<circle class="st2" cx="161.7" cy="315.5" r="5.4"/>
	<circle class="st2" cx="178.2" cy="315.5" r="5.4"/>
	<circle class="st2" cx="194.7" cy="315.5" r="5.4"/>
	<circle class="st2" cx="211.2" cy="315.5" r="5.4"/>
	<circle class="st3" cx="227.6" cy="315.5" r="5.4"/>
	<circle class="st2" cx="244.1" cy="315.5" r="5.4"/>
	<circle class="st2" cx="260.6" cy="315.5" r="5.4"/>
	<circle class="st2" cx="277.1" cy="315.5" r="5.4"/>
	<circle class="st2" cx="5" cy="329.6" r="5.4"/>
	<circle class="st2" cx="21.5" cy="329.6" r="5.4"/>
	<circle class="st2" cx="38" cy="329.6" r="5.4"/>
	<circle class="st2" cx="54.5" cy="329.6" r="5.4"/>
	<circle class="st2" cx="71" cy="329.6" r="5.4"/>
	<circle class="st2" cx="87.4" cy="329.6" r="5.4"/>
	<circle class="st2" cx="103.9" cy="329.6" r="5.4"/>
	<circle class="st2" cx="120.4" cy="329.6" r="5.4"/>
	<circle class="st2" cx="136.9" cy="329.6" r="5.4"/>
	<circle class="st2" cx="153.4" cy="329.6" r="5.4"/>
	<circle class="st2" cx="169.9" cy="329.6" r="5.4"/>
	<circle class="st2" cx="186.3" cy="329.6" r="5.4"/>
	<circle class="st2" cx="202.8" cy="329.6" r="5.4"/>
	<circle class="st2" cx="219.3" cy="329.6" r="5.4"/>
	<circle class="st2" cx="235.8" cy="329.6" r="5.4"/>
	<circle class="st2" cx="252.3" cy="329.6" r="5.4"/>
	<circle class="st2" cx="268.8" cy="329.5" r="5.4"/>
	<circle class="st2" cx="285.2" cy="329.5" r="5.4"/>
	<circle class="st2" cx="-3.1" cy="343.6" r="5.4"/>
	<circle class="st2" cx="13.4" cy="343.6" r="5.4"/>
	<circle class="st2" cx="29.8" cy="343.6" r="5.4"/>
	<circle class="st2" cx="46.3" cy="343.6" r="5.4"/>
	<circle class="st2" cx="62.8" cy="343.6" r="5.4"/>
	<circle class="st1" cx="79.3" cy="343.6" r="5.4"/>
	<circle class="st2" cx="95.8" cy="343.6" r="5.4"/>
	<circle class="st2" cx="112.3" cy="343.6" r="5.4"/>
	<circle class="st2" cx="128.7" cy="343.6" r="5.4"/>
	<circle class="st2" cx="145.2" cy="343.6" r="5.4"/>
	<circle class="st2" cx="161.7" cy="343.6" r="5.4"/>
	<circle class="st2" cx="178.2" cy="343.6" r="5.4"/>
	<circle class="st2" cx="194.7" cy="343.6" r="5.4"/>
	<circle class="st2" cx="211.2" cy="343.6" r="5.4"/>
	<circle class="st2" cx="260.6" cy="343.6" r="5.4"/>
	<circle class="st1" cx="277.1" cy="343.6" r="5.4"/>
	<circle class="st2" cx="5" cy="357.7" r="5.4"/>
	<circle class="st2" cx="21.5" cy="357.7" r="5.4"/>
	<circle class="st3" cx="38" cy="357.7" r="5.4"/>
	<circle class="st2" cx="54.5" cy="357.7" r="5.4"/>
	<circle class="st2" cx="71" cy="357.7" r="5.4"/>
	<circle class="st2" cx="87.5" cy="357.7" r="5.4"/>
	<circle class="st2" cx="103.9" cy="357.6" r="5.4"/>
	<circle class="st2" cx="120.4" cy="357.6" r="5.4"/>
	<circle class="st2" cx="136.9" cy="357.6" r="5.4"/>
	<circle class="st2" cx="153.4" cy="357.6" r="5.4"/>
	<circle class="st2" cx="169.9" cy="357.6" r="5.4"/>
	<circle class="st2" cx="186.3" cy="357.6" r="5.4"/>
	<circle class="st2" cx="202.8" cy="357.6" r="5.4"/>
	<circle class="st2" cx="219.3" cy="357.6" r="5.4"/>
	<circle class="st2" cx="-3.1" cy="371.7" r="5.4"/>
	<circle class="st3" cx="13.4" cy="371.7" r="5.4"/>
	<circle class="st2" cx="29.9" cy="371.7" r="5.4"/>
	<circle class="st2" cx="46.3" cy="371.7" r="5.4"/>
	<circle class="st2" cx="62.8" cy="371.7" r="5.4"/>
	<circle class="st2" cx="79.3" cy="371.7" r="5.4"/>
	<circle class="st1" cx="95.8" cy="371.7" r="5.4"/>
	<circle class="st2" cx="112.3" cy="371.7" r="5.4"/>
	<circle class="st2" cx="128.8" cy="371.7" r="5.4"/>
	<circle class="st2" cx="145.2" cy="371.7" r="5.4"/>
	<circle class="st2" cx="161.7" cy="371.7" r="5.4"/>
	<circle class="st2" cx="178.2" cy="371.7" r="5.4"/>
	<circle class="st2" cx="194.7" cy="371.7" r="5.4"/>
	<circle class="st2" cx="211.2" cy="371.7" r="5.4"/>
	<circle class="st2" cx="227.7" cy="371.7" r="5.4"/>
	<circle class="st2" cx="5" cy="385.7" r="5.4"/>
	<circle class="st2" cx="21.5" cy="385.7" r="5.4"/>
	<circle class="st2" cx="38" cy="385.7" r="5.4"/>
	<circle class="st2" cx="54.5" cy="385.7" r="5.4"/>
	<circle class="st2" cx="71" cy="385.7" r="5.4"/>
	<circle class="st2" cx="87.5" cy="385.7" r="5.4"/>
	<circle class="st2" cx="103.9" cy="385.7" r="5.4"/>
	<circle class="st2" cx="120.4" cy="385.7" r="5.4"/>
	<circle class="st2" cx="136.9" cy="385.7" r="5.4"/>
	<circle class="st2" cx="153.4" cy="385.7" r="5.4"/>
	<circle class="st1" cx="202.8" cy="385.7" r="5.4"/>
	<circle class="st2" cx="219.3" cy="385.7" r="5.4"/>
	<circle class="st2" cx="235.8" cy="385.7" r="5.4"/>
</g>
<g class="st8">
	<g class="st9">
		<circle class="st2" cx="257" cy="326" r="2.9"/>
		<circle class="st2" cx="265.9" cy="326" r="2.9"/>
		<circle class="st2" cx="274.7" cy="326" r="2.9"/>
		<circle class="st2" cx="283.6" cy="326" r="2.9"/>
		<circle class="st2" cx="292.5" cy="326" r="2.9"/>
		<circle class="st2" cx="301.4" cy="326" r="2.9"/>
		<circle class="st2" cx="234.7" cy="333.4" r="2.9"/>
		<circle class="st2" cx="243.6" cy="333.4" r="2.9"/>
		<circle class="st2" cx="252.5" cy="333.4" r="2.9"/>
		<circle class="st2" cx="261.4" cy="333.4" r="2.9"/>
		<circle class="st2" cx="270.3" cy="333.4" r="2.9"/>
		<circle class="st2" cx="279.1" cy="333.4" r="2.9"/>
		<circle class="st2" cx="288" cy="333.4" r="2.9"/>
		<circle class="st2" cx="296.9" cy="333.4" r="2.9"/>
		<circle class="st2" cx="305.8" cy="333.4" r="2.9"/>
		<circle class="st2" cx="314.6" cy="333.4" r="2.9"/>
		<circle class="st2" cx="239.2" cy="341" r="2.9"/>
		<circle class="st2" cx="248.1" cy="341" r="2.9"/>
		<circle class="st2" cx="257" cy="341" r="2.9"/>
		<circle class="st2" cx="265.9" cy="341" r="2.9"/>
		<circle class="st2" cx="274.7" cy="341" r="2.9"/>
		<circle class="st2" cx="283.6" cy="341" r="2.9"/>
		<circle class="st2" cx="292.5" cy="341" r="2.9"/>
		<circle class="st2" cx="301.4" cy="341" r="2.9"/>
		<circle class="st2" cx="310.3" cy="341" r="2.9"/>
		<circle class="st2" cx="319.1" cy="341" r="2.9"/>
		<circle class="st2" cx="328" cy="341" r="2.9"/>
		<circle class="st2" cx="336.9" cy="341" r="2.9"/>
		<circle class="st2" cx="345.8" cy="341" r="2.9"/>
		<circle class="st2" cx="354.6" cy="341" r="2.9"/>
		<circle class="st2" cx="363.5" cy="341" r="2.9"/>
		<circle class="st2" cx="372.4" cy="341" r="2.9"/>
		<circle class="st2" cx="381.3" cy="340.9" r="2.9"/>
		<circle class="st2" cx="261.4" cy="348.5" r="2.9"/>
		<circle class="st2" cx="270.3" cy="348.5" r="2.9"/>
		<circle class="st2" cx="279.1" cy="348.5" r="2.9"/>
		<circle class="st2" cx="288" cy="348.5" r="2.9"/>
		<circle class="st2" cx="296.9" cy="348.5" r="2.9"/>
		<circle class="st2" cx="305.8" cy="348.5" r="2.9"/>
		<circle class="st2" cx="314.6" cy="348.5" r="2.9"/>
		<circle class="st2" cx="323.5" cy="348.5" r="2.9"/>
		<circle class="st2" cx="332.4" cy="348.5" r="2.9"/>
		<circle class="st2" cx="341.3" cy="348.5" r="2.9"/>
		<circle class="st2" cx="350.1" cy="348.5" r="2.9"/>
		<circle class="st2" cx="359" cy="348.5" r="2.9"/>
		<circle class="st2" cx="367.9" cy="348.5" r="2.9"/>
		<circle class="st2" cx="376.8" cy="348.5" r="2.9"/>
		<circle class="st2" cx="385.7" cy="348.5" r="2.9"/>
		<circle class="st2" cx="394.5" cy="348.5" r="2.9"/>
		<circle class="st2" cx="403.4" cy="348.5" r="2.9"/>
		<circle class="st2" cx="412.3" cy="348.5" r="2.9"/>
		<circle class="st2" cx="421.2" cy="348.5" r="2.9"/>
		<circle class="st2" cx="430" cy="348.5" r="2.9"/>
		<circle class="st2" cx="438.9" cy="348.5" r="2.9"/>
		<circle class="st2" cx="447.8" cy="348.5" r="2.9"/>
		<circle class="st2" cx="456.7" cy="348.5" r="2.9"/>
		<circle class="st2" cx="230.4" cy="356.1" r="2.9"/>
		<circle class="st2" cx="239.2" cy="356.1" r="2.9"/>
		<circle class="st2" cx="248.1" cy="356.1" r="2.9"/>
		<circle class="st2" cx="257" cy="356.1" r="2.9"/>
		<circle class="st2" cx="265.9" cy="356.1" r="2.9"/>
		<circle class="st2" cx="274.7" cy="356.1" r="2.9"/>
		<circle class="st2" cx="283.6" cy="356.1" r="2.9"/>
		<circle class="st2" cx="292.5" cy="356.1" r="2.9"/>
		<circle class="st2" cx="301.4" cy="356.1" r="2.9"/>
		<circle class="st2" cx="310.3" cy="356.1" r="2.9"/>
		<circle class="st2" cx="319.1" cy="356.1" r="2.9"/>
		<circle class="st2" cx="328" cy="356.1" r="2.9"/>
		<circle class="st2" cx="336.9" cy="356.1" r="2.9"/>
		<circle class="st2" cx="345.8" cy="356.1" r="2.9"/>
		<circle class="st2" cx="354.6" cy="356.1" r="2.9"/>
		<circle class="st2" cx="363.5" cy="356.1" r="2.9"/>
		<circle class="st2" cx="372.4" cy="356.1" r="2.9"/>
		<circle class="st2" cx="381.3" cy="356.1" r="2.9"/>
		<circle class="st2" cx="390.1" cy="356.1" r="2.9"/>
		<circle class="st2" cx="399" cy="356.1" r="2.9"/>
		<circle class="st2" cx="407.9" cy="356.1" r="2.9"/>
		<circle class="st2" cx="416.8" cy="356.1" r="2.9"/>
		<circle class="st2" cx="425.6" cy="356.1" r="2.9"/>
		<circle class="st2" cx="434.5" cy="356.1" r="2.9"/>
		<circle class="st2" cx="443.4" cy="356.1" r="2.9"/>
		<circle class="st2" cx="452.3" cy="356.1" r="2.9"/>
		<circle class="st2" cx="461.2" cy="356.1" r="2.9"/>
		<circle class="st2" cx="470" cy="356.1" r="2.9"/>
		<circle class="st2" cx="478.9" cy="356.1" r="2.9"/>
		<circle class="st2" cx="487.8" cy="356" r="2.9"/>
		<circle class="st2" cx="243.6" cy="363.6" r="2.9"/>
		<circle class="st2" cx="252.5" cy="363.6" r="2.9"/>
		<circle class="st2" cx="261.4" cy="363.6" r="2.9"/>
		<circle class="st2" cx="270.3" cy="363.6" r="2.9"/>
		<circle class="st2" cx="279.1" cy="363.6" r="2.9"/>
		<circle class="st2" cx="288" cy="363.6" r="2.9"/>
		<circle class="st2" cx="296.9" cy="363.6" r="2.9"/>
		<circle class="st2" cx="305.8" cy="363.6" r="2.9"/>
		<circle class="st2" cx="314.6" cy="363.6" r="2.9"/>
		<circle class="st2" cx="323.5" cy="363.6" r="2.9"/>
		<circle class="st2" cx="332.4" cy="363.6" r="2.9"/>
		<circle class="st2" cx="341.3" cy="363.6" r="2.9"/>
		<circle class="st2" cx="350.1" cy="363.6" r="2.9"/>
		<circle class="st2" cx="359" cy="363.6" r="2.9"/>
		<circle class="st2" cx="367.9" cy="363.6" r="2.9"/>
		<circle class="st2" cx="230.4" cy="371.2" r="2.9"/>
		<circle class="st2" cx="239.2" cy="371.2" r="2.9"/>
		<circle class="st2" cx="248.1" cy="371.2" r="2.9"/>
		<circle class="st2" cx="257" cy="371.2" r="2.9"/>
		<circle class="st2" cx="265.9" cy="371.2" r="2.9"/>
		<circle class="st2" cx="274.7" cy="371.2" r="2.9"/>
		<circle class="st2" cx="283.6" cy="371.2" r="2.9"/>
		<circle class="st2" cx="292.5" cy="371.2" r="2.9"/>
		<circle class="st2" cx="301.4" cy="371.2" r="2.9"/>
		<circle class="st2" cx="310.3" cy="371.2" r="2.9"/>
		<circle class="st2" cx="319.1" cy="371.2" r="2.9"/>
		<circle class="st2" cx="328" cy="371.2" r="2.9"/>
		<circle class="st2" cx="336.9" cy="371.2" r="2.9"/>
		<circle class="st2" cx="345.8" cy="371.2" r="2.9"/>
		<circle class="st2" cx="354.6" cy="371.2" r="2.9"/>
		<circle class="st2" cx="363.5" cy="371.2" r="2.9"/>
		<circle class="st2" cx="372.4" cy="371.2" r="2.9"/>
		<circle class="st2" cx="381.3" cy="371.2" r="2.9"/>
		<circle class="st2" cx="390.1" cy="371.2" r="2.9"/>
		<circle class="st2" cx="399" cy="371.2" r="2.9"/>
		<circle class="st2" cx="407.9" cy="371.2" r="2.9"/>
		<circle class="st2" cx="416.8" cy="371.2" r="2.9"/>
		<circle class="st2" cx="425.7" cy="371.2" r="2.9"/>
		<circle class="st2" cx="434.5" cy="371.2" r="2.9"/>
		<circle class="st2" cx="443.4" cy="371.2" r="2.9"/>
		<circle class="st2" cx="452.3" cy="371.2" r="2.9"/>
		<circle class="st2" cx="461.2" cy="371.2" r="2.9"/>
		<circle class="st2" cx="470" cy="371.2" r="2.9"/>
		<circle class="st2" cx="478.9" cy="371.2" r="2.9"/>
		<circle class="st2" cx="487.8" cy="371.2" r="2.9"/>
		<circle class="st2" cx="279.1" cy="378.8" r="2.9"/>
		<circle class="st2" cx="288" cy="378.8" r="2.9"/>
		<circle class="st2" cx="296.9" cy="378.8" r="2.9"/>
		<circle class="st2" cx="305.8" cy="378.8" r="2.9"/>
		<circle class="st2" cx="314.6" cy="378.8" r="2.9"/>
		<circle class="st2" cx="323.5" cy="378.8" r="2.9"/>
		<circle class="st2" cx="332.4" cy="378.8" r="2.9"/>
		<circle class="st2" cx="341.3" cy="378.8" r="2.9"/>
		<circle class="st2" cx="350.2" cy="378.7" r="2.9"/>
		<circle class="st2" cx="359" cy="378.7" r="2.9"/>
		<circle class="st2" cx="367.9" cy="378.7" r="2.9"/>
		<circle class="st2" cx="376.8" cy="378.7" r="2.9"/>
		<circle class="st2" cx="385.7" cy="378.7" r="2.9"/>
		<circle class="st2" cx="394.5" cy="378.7" r="2.9"/>
		<circle class="st2" cx="403.4" cy="378.7" r="2.9"/>
		<circle class="st2" cx="412.3" cy="378.7" r="2.9"/>
		<circle class="st2" cx="421.2" cy="378.7" r="2.9"/>
		<circle class="st2" cx="430" cy="378.7" r="2.9"/>
		<circle class="st2" cx="438.9" cy="378.7" r="2.9"/>
		<circle class="st2" cx="447.8" cy="378.7" r="2.9"/>
		<circle class="st2" cx="456.7" cy="378.7" r="2.9"/>
		<circle class="st2" cx="465.5" cy="378.7" r="2.9"/>
		<circle class="st2" cx="474.4" cy="378.7" r="2.9"/>
		<circle class="st2" cx="483.3" cy="378.7" r="2.9"/>
		<circle class="st2" cx="492.2" cy="378.7" r="2.9"/>
	</g>
	<g class="st9">
		<circle class="st2" cx="496.2" cy="356.1" r="2.9"/>
		<circle class="st2" cx="505.1" cy="356.1" r="2.9"/>
		<circle class="st2" cx="513.9" cy="356.1" r="2.9"/>
		<circle class="st2" cx="522.8" cy="356.1" r="2.9"/>
		<circle class="st2" cx="496.2" cy="371.2" r="2.9"/>
		<circle class="st2" cx="500.6" cy="378.8" r="2.9"/>
		<circle class="st2" cx="509.4" cy="378.8" r="2.9"/>
		<circle class="st2" cx="518.3" cy="378.8" r="2.9"/>
	</g>
</g>
<g class="st8">
	<g class="st9">
		<circle class="st2" cx="712.8" cy="49.9" r="2.9"/>
		<circle class="st2" cx="703.9" cy="49.9" r="2.9"/>
		<circle class="st2" cx="695.1" cy="49.9" r="2.9"/>
		<circle class="st2" cx="686.2" cy="49.9" r="2.9"/>
		<circle class="st2" cx="677.3" cy="49.9" r="2.9"/>
		<circle class="st2" cx="668.4" cy="49.9" r="2.9"/>
		<circle class="st2" cx="659.5" cy="49.9" r="2.9"/>
		<circle class="st2" cx="712.8" cy="35.4" r="2.9"/>
		<circle class="st2" cx="703.9" cy="35.4" r="2.9"/>
		<circle class="st2" cx="695.1" cy="35.4" r="2.9"/>
		<circle class="st2" cx="686.2" cy="35.4" r="2.9"/>
		<circle class="st2" cx="677.3" cy="35.4" r="2.9"/>
		<circle class="st2" cx="668.4" cy="35.4" r="2.9"/>
		<circle class="st2" cx="659.5" cy="35.4" r="2.9"/>
		<circle class="st2" cx="708.3" cy="42.4" r="2.9"/>
		<circle class="st2" cx="699.4" cy="42.4" r="2.9"/>
		<circle class="st2" cx="690.6" cy="42.4" r="2.9"/>
		<circle class="st2" cx="681.7" cy="42.4" r="2.9"/>
		<circle class="st2" cx="672.8" cy="42.4" r="2.9"/>
		<circle class="st2" cx="663.9" cy="42.4" r="2.9"/>
		<circle class="st2" cx="655.1" cy="42.4" r="2.9"/>
		<circle class="st2" cx="646.2" cy="42.4" r="2.9"/>
		<circle class="st2" cx="637.3" cy="42.4" r="2.9"/>
		<circle class="st2" cx="699.4" cy="27.3" r="2.9"/>
		<circle class="st2" cx="690.6" cy="27.3" r="2.9"/>
		<circle class="st2" cx="681.7" cy="27.3" r="2.9"/>
		<circle class="st2" cx="672.8" cy="27.3" r="2.9"/>
		<circle class="st2" cx="663.9" cy="27.3" r="2.9"/>
		<circle class="st2" cx="655.1" cy="27.3" r="2.9"/>
		<circle class="st2" cx="646.2" cy="27.3" r="2.9"/>
		<circle class="st2" cx="637.3" cy="27.3" r="2.9"/>
		<circle class="st2" cx="628.4" cy="27.3" r="2.9"/>
		<circle class="st2" cx="721.7" cy="19.7" r="2.9"/>
		<circle class="st2" cx="712.8" cy="19.7" r="2.9"/>
		<circle class="st2" cx="703.9" cy="19.7" r="2.9"/>
		<circle class="st2" cx="695.1" cy="19.7" r="2.9"/>
		<circle class="st2" cx="686.2" cy="19.7" r="2.9"/>
		<circle class="st2" cx="677.3" cy="19.7" r="2.9"/>
		<circle class="st2" cx="668.4" cy="19.7" r="2.9"/>
		<circle class="st2" cx="659.5" cy="19.7" r="2.9"/>
		<circle class="st2" cx="650.7" cy="19.7" r="2.9"/>
		<circle class="st2" cx="650.7" cy="35.4" r="2.9"/>
		<circle class="st2" cx="743.8" cy="12.1" r="2.9"/>
		<circle class="st2" cx="734.9" cy="12.1" r="2.9"/>
		<circle class="st2" cx="726.1" cy="12.1" r="2.9"/>
		<circle class="st2" cx="717.2" cy="12.1" r="2.9"/>
		<circle class="st2" cx="708.3" cy="12.1" r="2.9"/>
		<circle class="st2" cx="699.4" cy="12.1" r="2.9"/>
		<circle class="st2" cx="690.6" cy="12.1" r="2.9"/>
		<circle class="st2" cx="681.7" cy="12.1" r="2.9"/>
		<circle class="st2" cx="672.8" cy="12.1" r="2.9"/>
		<circle class="st2" cx="663.9" cy="12.1" r="2.9"/>
		<circle class="st2" cx="655.1" cy="12.1" r="2.9"/>
		<circle class="st2" cx="646.2" cy="12.1" r="2.9"/>
		<circle class="st2" cx="637.3" cy="12.1" r="2.9"/>
		<circle class="st2" cx="628.4" cy="12.1" r="2.9"/>
		<circle class="st2" cx="739.4" cy="4.6" r="2.9"/>
		<circle class="st2" cx="730.6" cy="4.6" r="2.9"/>
		<circle class="st2" cx="721.7" cy="4.6" r="2.9"/>
		<circle class="st2" cx="712.8" cy="4.6" r="2.9"/>
		<circle class="st2" cx="703.9" cy="4.6" r="2.9"/>
		<circle class="st2" cx="695.1" cy="4.6" r="2.9"/>
	</g>
	<g class="st9">
		<circle class="st2" cx="641.8" cy="35.4" r="2.9"/>
		<circle class="st2" cx="632.9" cy="35.4" r="2.9"/>
		<circle class="st2" cx="624" cy="35.4" r="2.9"/>
		<circle class="st2" cx="620" cy="12.1" r="2.9"/>
		<circle class="st2" cx="611.2" cy="12.1" r="2.9"/>
	</g>
</g>
<rect x="-13.4" y="-9" class="st4" width="1010.6" height="408"/>
<g>
	<g>
		<path class="st5" d="M222.6,101h22.2v49.6h28.5v16.9h-50.7V101z"/>
		<path class="st5" d="M281,101h22.2v66.6H281V101z"/>
		<path class="st5" d="M310.3,101H329l21.9,30.7V101h22.2v66.6h-18.9L332.6,137v30.6h-22.2V101z"/>
		<path class="st5" d="M395.9,165.5c-4.9-2.1-8.7-5.1-11.4-9.2c-2.8-4.1-4.1-9-4.1-14.7V101h22.2v38c0,7.2,3.4,10.7,10.1,10.7
			c6.8,0,10.1-3.6,10.1-10.7v-38H445v40.6c0,5.7-1.4,10.6-4.1,14.7c-2.8,4.1-6.6,7.1-11.4,9.2c-4.9,2.1-10.5,3.1-16.8,3.1
			C406.4,168.6,400.8,167.6,395.9,165.5z"/>
		<path class="st5" d="M472.8,133.9L449.1,101h23.1l12.2,17.5l12.3-17.5h23.1l-23.7,32.9l24.6,33.7h-23.5l-12.9-18.1l-12.8,18.1
			h-23.5L472.8,133.9z"/>
		<path class="st5" d="M587,101h23.3l25.6,66.6h-23.1l-5.2-13.2h-17.9l-5.1,13.2h-23.1L587,101z M604.9,138.8l-6.3-16.1l-6.2,16.1
			H604.9z"/>
		<path class="st5" d="M640.7,101h35.9c5.4,0,9.9,1.1,13.6,3.4c3.7,2.2,6.4,5.3,8.3,9c1.8,3.8,2.7,8.1,2.7,12.8c0,4.8-1,9-3.1,12.8
			c-2.1,3.8-5,6.8-8.8,8.9c-3.8,2.2-8.2,3.3-13.1,3.3H663v16.3h-22.2V101z M671,134c2.4,0,4.3-0.7,5.6-2.1c1.3-1.4,2-3.3,2-5.7
			c0-2.5-0.6-4.5-1.8-5.9c-1.2-1.4-3-2.1-5.4-2.1H663V134H671z"/>
		<path class="st5" d="M705,101h35.9c5.4,0,9.9,1.1,13.6,3.4c3.7,2.2,6.4,5.3,8.3,9c1.8,3.8,2.7,8.1,2.7,12.8c0,4.8-1,9-3.1,12.8
			c-2.1,3.8-5,6.8-8.8,8.9c-3.8,2.2-8.2,3.3-13.1,3.3h-13.2v16.3H705V101z M735.3,134c2.4,0,4.3-0.7,5.6-2.1c1.3-1.4,2-3.3,2-5.7
			c0-2.5-0.6-4.5-1.8-5.9c-1.2-1.4-3-2.1-5.4-2.1h-8.5V134H735.3z"/>
		<path class="st5" d="M316.5,264c-4.2-0.8-7.7-1.8-10.6-3.2v-17.4c3.2,1.5,6.8,2.8,10.7,3.7c3.9,1,7.5,1.4,10.6,1.4
			c2.9,0,5-0.3,6.5-0.9c1.4-0.6,2.1-1.6,2.1-3c0-1.3-0.7-2.3-2-3c-1.3-0.7-3.8-1.7-7.3-2.8c-1-0.3-2.3-0.7-3.9-1.2
			c-4.5-1.5-8-3.2-10.4-4.9s-4.3-3.9-5.4-6.4c-1.1-2.5-1.7-5.6-1.7-9.3c0-13.6,9.5-20.5,28.4-20.5c3.4,0,7.1,0.3,11.2,0.9
			c4.1,0.6,7.5,1.3,10.2,2.2v17.5c-6.4-2.5-12.3-3.8-17.7-3.8c-3,0-5.3,0.2-7,0.7c-1.7,0.5-2.5,1.4-2.5,2.8c0,0.9,0.4,1.6,1.1,2.2
			c0.7,0.6,1.8,1,3.1,1.4c1.3,0.4,3.7,1.1,7.1,2c5.3,1.4,9.4,3.2,12.2,5.3c2.8,2.1,4.8,4.4,5.8,7.1c1,2.7,1.5,6,1.5,9.8
			c0,6.3-2.5,11.4-7.4,15c-4.9,3.7-12.1,5.5-21.5,5.5C325.1,265.1,320.7,264.7,316.5,264z"/>
		<path class="st5" d="M378.4,262c-4.9-2.1-8.7-5.1-11.4-9.2c-2.8-4.1-4.1-9-4.1-14.7v-40.6H385v38c0,7.2,3.4,10.7,10.1,10.7
			c6.8,0,10.1-3.6,10.1-10.7v-38h22.2v40.6c0,5.7-1.4,10.6-4.1,14.7c-2.8,4.1-6.6,7.1-11.4,9.2c-4.9,2.1-10.5,3.1-16.8,3.1
			C388.8,265.1,383.2,264.1,378.4,262z"/>
		<path class="st5" d="M434.6,197.5h21.3l15.1,30.7l14.9-30.7h21.3v66.6H485v-28.3l-8.3,16.9h-11.6l-8.3-16.9v28.3h-22.2V197.5z"/>
		<path class="st5" d="M514.4,197.5h21.3l15.1,30.7l14.9-30.7H587v66.6h-22.2v-28.3l-8.3,16.9h-11.6l-8.3-16.9v28.3h-22.2V197.5z"/>
		<path class="st5" d="M594.6,197.5h22.2v66.6h-22.2V197.5z"/>
		<path class="st5" d="M640.7,213.8h-17.8v-16.2h57.9v16.2h-17.9v50.3h-22.2V213.8z"/>
	</g>
</g>
<g>
	<path class="st3" d="M405.5,319.7l-1.2-4.1H398l-1.2,4.1h-3.9l6-17.2h4.4l6.1,17.2H405.5z M403.3,312.5c-1.1-3.7-1.8-5.8-1.9-6.3
		s-0.2-0.9-0.3-1.1c-0.3,1-1,3.5-2.2,7.4H403.3z"/>
	<path class="st3" d="M418.4,319.9c-1.5,0-2.7-0.6-3.6-1.7h-0.2c0.1,1.1,0.2,1.7,0.2,1.9v5.3h-3.6v-18.9h2.9l0.5,1.7h0.2
		c0.8-1.3,2.1-1.9,3.7-1.9c1.5,0,2.8,0.6,3.6,1.8s1.3,2.9,1.3,5c0,1.4-0.2,2.6-0.6,3.6s-1,1.8-1.8,2.4S419.5,319.9,418.4,319.9z
		 M417.4,309.2c-0.9,0-1.5,0.3-1.9,0.8s-0.6,1.4-0.6,2.7v0.4c0,1.4,0.2,2.4,0.6,3s1.1,0.9,2,0.9c1.6,0,2.4-1.3,2.4-4
		c0-1.3-0.2-2.3-0.6-2.9S418.2,309.2,417.4,309.2z"/>
	<path class="st3" d="M433.7,306.3c0.5,0,0.9,0,1.2,0.1l-0.3,3.4c-0.3-0.1-0.6-0.1-1.1-0.1c-1.1,0-2,0.3-2.7,0.9s-1,1.4-1,2.5v6.7
		h-3.6v-13.1h2.7l0.5,2.2h0.2c0.4-0.7,1-1.3,1.6-1.8S432.9,306.3,433.7,306.3z"/>
	<path class="st3" d="M437.2,303.2c0-1.2,0.6-1.7,1.9-1.7s1.9,0.6,1.9,1.7c0,0.6-0.2,1-0.5,1.3s-0.8,0.5-1.5,0.5
		C437.8,304.9,437.2,304.4,437.2,303.2z M440.9,319.7h-3.6v-13.1h3.6V319.7z"/>
	<path class="st3" d="M448.2,319.7h-3.6v-18.2h3.6V319.7z"/>
	<path class="st3" d="M469.3,319.7h-12v-2.5l4.3-4.3c1.3-1.3,2.1-2.2,2.5-2.7s0.7-1,0.8-1.4s0.3-0.9,0.3-1.3c0-0.7-0.2-1.2-0.6-1.5
		s-0.9-0.5-1.5-0.5c-0.7,0-1.3,0.2-1.9,0.5s-1.3,0.7-2,1.3l-2-2.3c0.8-0.7,1.5-1.2,2.1-1.5s1.2-0.5,1.8-0.7s1.4-0.2,2.2-0.2
		c1.1,0,2,0.2,2.8,0.6s1.5,0.9,1.9,1.6s0.7,1.5,0.7,2.4c0,0.8-0.1,1.5-0.4,2.2s-0.7,1.4-1.3,2.1s-1.6,1.8-3.1,3.1l-2.2,2.1v0.2h7.5
		V319.7z"/>
	<path class="st3" d="M482.9,309.9c0,3.4-0.7,5.9-2.1,7.6s-3.6,2.5-6.5,2.5c-1,0-1.8-0.1-2.3-0.2v-2.9c0.7,0.2,1.3,0.2,2.1,0.2
		c1.2,0,2.2-0.2,3-0.5s1.4-0.9,1.8-1.7s0.7-1.8,0.7-3.1h-0.1c-0.5,0.7-1,1.2-1.6,1.5s-1.3,0.4-2.2,0.4c-1.5,0-2.7-0.5-3.5-1.4
		s-1.3-2.3-1.3-4c0-1.8,0.5-3.3,1.6-4.4s2.5-1.6,4.3-1.6c1.3,0,2.4,0.3,3.3,0.9s1.7,1.5,2.2,2.6S482.9,308.3,482.9,309.9z
		 M476.7,305.2c-0.8,0-1.3,0.3-1.8,0.8s-0.6,1.3-0.6,2.2c0,0.8,0.2,1.5,0.6,2s1,0.7,1.7,0.7c0.7,0,1.4-0.2,1.9-0.7s0.8-1,0.8-1.7
		c0-0.9-0.2-1.7-0.7-2.4S477.5,305.2,476.7,305.2z"/>
	<path class="st3" d="M484.7,314.6v-2.7h10.1v2.7H484.7z"/>
	<path class="st3" d="M508,306.4c0,1.1-0.3,2-1,2.7s-1.6,1.3-2.7,1.5v0.1c1.4,0.2,2.4,0.6,3.1,1.3s1.1,1.6,1.1,2.7
		c0,1.6-0.6,2.9-1.8,3.8s-2.9,1.4-5.1,1.4c-1.9,0-3.5-0.3-4.9-0.9v-3.1c0.7,0.3,1.4,0.6,2.2,0.8s1.6,0.3,2.4,0.3
		c1.2,0,2.1-0.2,2.6-0.6s0.9-1.1,0.9-2c0-0.8-0.3-1.4-1-1.7s-1.7-0.5-3.1-0.5h-1.3v-2.8h1.3c1.3,0,2.3-0.2,2.9-0.5s0.9-0.9,0.9-1.8
		c0-1.3-0.8-1.9-2.4-1.9c-0.6,0-1.1,0.1-1.7,0.3s-1.2,0.5-1.9,1l-1.7-2.5c1.6-1.1,3.4-1.7,5.6-1.7c1.8,0,3.2,0.4,4.2,1.1
		S508,305.1,508,306.4z"/>
	<path class="st3" d="M522.3,311.1c0,3-0.5,5.2-1.5,6.6s-2.5,2.2-4.5,2.2c-2,0-3.5-0.7-4.5-2.2s-1.5-3.7-1.5-6.6
		c0-3,0.5-5.3,1.5-6.7s2.5-2.2,4.5-2.2c2,0,3.5,0.8,4.5,2.2S522.3,308.2,522.3,311.1z M513.9,311.1c0,2.1,0.2,3.6,0.5,4.5
		s1,1.4,1.8,1.4c0.8,0,1.5-0.5,1.8-1.4s0.6-2.4,0.6-4.5c0-2.1-0.2-3.6-0.6-4.5s-1-1.4-1.8-1.4c-0.9,0-1.5,0.5-1.8,1.4
		S513.9,309,513.9,311.1z"/>
	<path class="st3" d="M528.5,317.2c-0.4,1.6-1.1,3.4-2.1,5.6h-2.6c0.5-2.1,0.9-4,1.2-5.9h3.3L528.5,317.2z"/>
	<path class="st3" d="M549.3,319.7h-12v-2.5l4.3-4.3c1.3-1.3,2.1-2.2,2.5-2.7s0.7-1,0.8-1.4s0.3-0.9,0.3-1.3c0-0.7-0.2-1.2-0.6-1.5
		s-0.9-0.5-1.5-0.5c-0.7,0-1.3,0.2-1.9,0.5s-1.3,0.7-2,1.3l-2-2.3c0.8-0.7,1.5-1.2,2.1-1.5s1.2-0.5,1.8-0.7s1.4-0.2,2.2-0.2
		c1.1,0,2,0.2,2.8,0.6s1.5,0.9,1.9,1.6s0.7,1.5,0.7,2.4c0,0.8-0.1,1.5-0.4,2.2s-0.7,1.4-1.3,2.1s-1.6,1.8-3.1,3.1l-2.2,2.1v0.2h7.5
		V319.7z"/>
	<path class="st3" d="M562.9,311.1c0,3-0.5,5.2-1.5,6.6s-2.5,2.2-4.5,2.2c-2,0-3.5-0.7-4.5-2.2s-1.5-3.7-1.5-6.6
		c0-3,0.5-5.3,1.5-6.7s2.5-2.2,4.5-2.2c2,0,3.5,0.8,4.5,2.2S562.9,308.2,562.9,311.1z M554.5,311.1c0,2.1,0.2,3.6,0.5,4.5
		s1,1.4,1.8,1.4c0.8,0,1.5-0.5,1.8-1.4s0.6-2.4,0.6-4.5c0-2.1-0.2-3.6-0.6-4.5s-1-1.4-1.8-1.4c-0.9,0-1.5,0.5-1.8,1.4
		S554.5,309,554.5,311.1z"/>
	<path class="st3" d="M576.7,319.7h-12v-2.5l4.3-4.3c1.3-1.3,2.1-2.2,2.5-2.7s0.7-1,0.8-1.4s0.3-0.9,0.3-1.3c0-0.7-0.2-1.2-0.6-1.5
		s-0.9-0.5-1.5-0.5c-0.7,0-1.3,0.2-1.9,0.5s-1.3,0.7-2,1.3l-2-2.3c0.8-0.7,1.5-1.2,2.1-1.5s1.2-0.5,1.8-0.7s1.4-0.2,2.2-0.2
		c1.1,0,2,0.2,2.8,0.6s1.5,0.9,1.9,1.6s0.7,1.5,0.7,2.4c0,0.8-0.1,1.5-0.4,2.2s-0.7,1.4-1.3,2.1s-1.6,1.8-3.1,3.1l-2.2,2.1v0.2h7.5
		V319.7z"/>
	<path class="st3" d="M590.4,319.7h-12v-2.5l4.3-4.3c1.3-1.3,2.1-2.2,2.5-2.7s0.7-1,0.8-1.4s0.3-0.9,0.3-1.3c0-0.7-0.2-1.2-0.6-1.5
		s-0.9-0.5-1.5-0.5c-0.7,0-1.3,0.2-1.9,0.5s-1.3,0.7-2,1.3l-2-2.3c0.8-0.7,1.5-1.2,2.1-1.5s1.2-0.5,1.8-0.7s1.4-0.2,2.2-0.2
		c1.1,0,2,0.2,2.8,0.6s1.5,0.9,1.9,1.6s0.7,1.5,0.7,2.4c0,0.8-0.1,1.5-0.4,2.2s-0.7,1.4-1.3,2.1s-1.6,1.8-3.1,3.1l-2.2,2.1v0.2h7.5
		V319.7z"/>
</g>
</svg>
